<svg id="baseline-check-24px" xmlns="http://www.w3.org/2000/svg" viewBox="0 0 34.486 34.486">
  <defs>
    <style>
      .cls-1 {
        fill: none;
      }

      .cls-2 {
        fill: #27ae60;
      }
    </style>
  </defs>
  <path id="Path_12" data-name="Path 12" class="cls-1" d="M0,0H34.486V34.486H0Z"/>
  <path id="Path_13" data-name="Path 13" class="cls-2" d="M11.442,20.793,5.45,14.8,3.41,16.827l8.032,8.032L28.685,7.616,26.659,5.59Z" transform="translate(1.49 2.442)"/>
</svg>
