<svg id="baseline-close-24px" xmlns="http://www.w3.org/2000/svg" viewBox="0 0 30 30">
  <defs>
    <style>
      .cls-1 {
        fill: #c0392b;
      }

      .cls-2 {
        fill: none;
      }
    </style>
  </defs>
  <path id="Path_14" data-name="Path 14" class="cls-1" d="M22.5,6.762,20.737,5,13.75,11.988,6.762,5,5,6.762l6.988,6.988L5,20.737,6.762,22.5l6.988-6.987L20.737,22.5,22.5,20.737,15.513,13.75Z" transform="translate(1.25 1.25)"/>
  <path id="Path_15" data-name="Path 15" class="cls-2" d="M0,0H30V30H0Z"/>
</svg>
